%YAML 1.1
%TAG !u! tag:unity3d.com,2011:
--- !u!1001 &100100000
Prefab:
  m_ObjectHideFlags: 1
  serializedVersion: 2
  m_Modification:
    m_TransformParent: {fileID: 0}
    m_Modifications: []
    m_RemovedComponents: []
  m_SourcePrefab: {fileID: 0}
  m_RootGameObject: {fileID: 1809441503174726}
  m_IsPrefabAsset: 1
--- !u!1 &1809441503174726
GameObject:
  m_ObjectHideFlags: 0
  m_CorrespondingSourceObject: {fileID: 0}
  m_PrefabInternal: {fileID: 100100000}
  serializedVersion: 6
  m_Component:
  - component: {fileID: 4944504773040950}
  - component: {fileID: 114215465881635214}
  m_Layer: 10
  m_Name: AudioManager
  m_TagString: Untagged
  m_Icon: {fileID: 0}
  m_NavMeshLayer: 0
  m_StaticEditorFlags: 0
  m_IsActive: 1
--- !u!4 &4944504773040950
Transform:
  m_ObjectHideFlags: 1
  m_CorrespondingSourceObject: {fileID: 0}
  m_PrefabInternal: {fileID: 100100000}
  m_GameObject: {fileID: 1809441503174726}
  m_LocalRotation: {x: -0, y: -0, z: -0, w: 1}
  m_LocalPosition: {x: 0, y: 0, z: 0}
  m_LocalScale: {x: 1, y: 1, z: 1}
  m_Children: []
  m_Father: {fileID: 0}
  m_RootOrder: 0
  m_LocalEulerAnglesHint: {x: 0, y: 0, z: 0}
--- !u!114 &114215465881635214
MonoBehaviour:
  m_ObjectHideFlags: 1
  m_CorrespondingSourceObject: {fileID: 0}
  m_PrefabInternal: {fileID: 100100000}
  m_GameObject: {fileID: 1809441503174726}
  m_Enabled: 1
  m_EditorHideFlags: 0
  m_Script: {fileID: 11500000, guid: 78c8a87ba728d5b428823929dccfc796, type: 3}
  m_Name: 
  m_EditorClassIdentifier: 
  sounds:
  - name: GemCollect
    clip: {fileID: 8300000, guid: 80dab223925be7d409a41e61bcf7878b, type: 3}
    volume: 0.5
    pitch: 1
    loop: 0
    source: {fileID: 0}
  - name: BGM
    clip: {fileID: 8300000, guid: 31ed1efb6c082447b8c7a125191f2c43, type: 3}
    volume: 0.32
    pitch: 1
    loop: 1
    source: {fileID: 0}
  - name: CherrySound
    clip: {fileID: 8300000, guid: 453addd541cfbf0439dca337c16cece5, type: 3}
    volume: 0.5
    pitch: 2.5
    loop: 0
    source: {fileID: 0}
  - name: PlayerJump
    clip: {fileID: 8300000, guid: e6ebd0e3d94bfd64bb8bc7873f49a0da, type: 3}
    volume: 0.5
    pitch: 1
    loop: 0
    source: {fileID: 0}
  - name: EnemyBounce
    clip: {fileID: 8300000, guid: 803e5b30269251c40ab75d6aedd1cb51, type: 3}
    volume: 0.5
    pitch: 1
    loop: 0
    source: {fileID: 0}
  - name: EnemyHit
    clip: {fileID: 8300000, guid: d2a802403212ab74cab50a3b339315c3, type: 3}
    volume: 0.5
    pitch: 1
    loop: 0
    source: {fileID: 0}
  - name: PlayerDeath
    clip: {fileID: 8300000, guid: 01f7ba58cf5258647813c9d953000be9, type: 3}
    volume: 0.65
    pitch: 0.8
    loop: 0
    source: {fileID: 0}
  - name: MainMenuBGM
    clip: {fileID: 8300000, guid: 9a7a4d014158b41bead530ff1b5cabbb, type: 3}
    volume: 0.35
    pitch: 1
    loop: 0
    source: {fileID: 0}
  - name: EndLevelMusic
    clip: {fileID: 8300000, guid: b97c2c85092844a41b021b7d35a645f8, type: 3}
    volume: 0.65
    pitch: 1
    loop: 0
    source: {fileID: 0}
